{
  "log": {
    "disabled": false,
    "level": "info",
    "timestamp": true
  },
  "experimental": {
    "clash_api": {
      "external_controller": "127.0.0.1:9090",
      "external_ui": "ui",
      "external_ui_download_url": "",
      "external_ui_download_detour": "",
      "secret": "",
      "default_mode": "Rule"
       },
      "cache_file": {
            "enabled": true,
            "path": "cache.db",
            "store_fakeip": true
        }
    },
    "dns": {
        "servers": [
            {
                "tag": "proxydns",
                "address": "tls://8.8.8.8/dns-query",
                "detour": "select"
            },
            {
                "tag": "localdns",
                "address": "h3://223.5.5.5/dns-query",
                "detour": "direct"
            },
            {
                "address": "rcode://refused",
                "tag": "block"
            },
            {
                "tag": "dns_fakeip",
                "address": "fakeip"
            }
        ],
        "rules": [
            {
                "outbound": "any",
                "server": "localdns",
                "disable_cache": true
            },
            {
                "clash_mode": "Global",
                "server": "proxydns"
            },
            {
                "clash_mode": "Direct",
                "server": "localdns"
            },
            {
                "rule_set": "geosite-cn",
                "server": "localdns"
            },
            {
                 "rule_set": "geosite-geolocation-!cn",
                 "server": "proxydns"
            },
             {
                "rule_set": "geosite-geolocation-!cn",         
                "query_type": [
                    "A",
                    "AAAA"
                ],
                "server": "dns_fakeip"
            }
          ],
           "fakeip": {
           "enabled": true,
           "inet4_range": "198.18.0.0/15",
           "inet6_range": "fc00::/18"
         },
          "independent_cache": true,
          "final": "proxydns"
        },
      "inbounds": [
    {
      "type": "tun",
      "inet4_address": "172.19.0.1/30",
      "inet6_address": "fd00::1/126",
      "auto_route": true,
      "strict_route": true,
      "sniff": true,
      "sniff_override_destination": true,
      "domain_strategy": "prefer_ipv4"
    }
  ],
  "outbounds": [
    {
      "tag": "select",
      "type": "selector",
      "default": "auto",
      "outbounds": [
        "auto",
        "vless-19cf5dff07.bytevirt.com",
        "vmess-19cf5dff07.bytevirt.com",
        "hy2-19cf5dff07.bytevirt.com",
        "tuic5-19cf5dff07.bytevirt.com"
      ]
    },
    {
      "type": "vless",
      "tag": "vless-19cf5dff07.bytevirt.com",
      "server": "140.235.37.30",
      "server_port": 61524,
      "uuid": "c4c43262-356b-4463-a2c1-8714200e5225",
      "packet_encoding": "xudp",
      "flow": "xtls-rprx-vision",
      "tls": {
        "enabled": true,
        "server_name": "www.yahoo.com",
        "utls": {
          "enabled": true,
          "fingerprint": "chrome"
        },
      "reality": {
          "enabled": true,
          "public_key": "Yg0eZn90XqdNqgGNTq8niFQ8wNiYvliXO2NTxzZuAUc",
          "short_id": "bc70f4e0"
        }
      }
    },
{
            "server": "140.235.37.30",
            "server_port": 8880,
            "tag": "vmess-19cf5dff07.bytevirt.com",
            "tls": {
                "enabled": false,
                "server_name": "www.bing.com",
                "insecure": false,
                "utls": {
                    "enabled": true,
                    "fingerprint": "chrome"
                }
            },
            "packet_encoding": "packetaddr",
            "transport": {
                "headers": {
                    "Host": [
                        "www.bing.com"
                    ]
                },
                "path": "c4c43262-356b-4463-a2c1-8714200e5225-vm",
                "type": "ws"
            },
            "type": "vmess",
            "security": "auto",
            "uuid": "c4c43262-356b-4463-a2c1-8714200e5225"
        },

    {
        "type": "hysteria2",
        "tag": "hy2-19cf5dff07.bytevirt.com",
        "server": "140.235.37.30",
        "server_port": 38029,
        "password": "c4c43262-356b-4463-a2c1-8714200e5225",
        "tls": {
            "enabled": true,
            "server_name": "www.bing.com",
            "insecure": true,
            "alpn": [
                "h3"
            ]
        }
    },
        {
            "type":"tuic",
            "tag": "tuic5-19cf5dff07.bytevirt.com",
            "server": "140.235.37.30",
            "server_port": 44539,
            "uuid": "c4c43262-356b-4463-a2c1-8714200e5225",
            "password": "c4c43262-356b-4463-a2c1-8714200e5225",
            "congestion_control": "bbr",
            "udp_relay_mode": "native",
            "udp_over_stream": false,
            "zero_rtt_handshake": false,
            "heartbeat": "10s",
            "tls":{
                "enabled": true,
                "server_name": "www.bing.com",
                "insecure": true,
                "alpn": [
                    "h3"
                ]
            }
        },
    {
      "tag": "direct",
      "type": "direct"
    },
    {
      "tag": "block",
      "type": "block"
    },
    {
      "tag": "dns-out",
      "type": "dns"
    },
    {
      "tag": "auto",
      "type": "urltest",
      "outbounds": [
        "vless-19cf5dff07.bytevirt.com",
        "vmess-19cf5dff07.bytevirt.com",
        "hy2-19cf5dff07.bytevirt.com",
        "tuic5-19cf5dff07.bytevirt.com"
      ],
      "url": "https://www.gstatic.com/generate_204",
      "interval": "1m",
      "tolerance": 50,
      "interrupt_exist_connections": false
    }
  ],
  "route": {
      "rule_set": [
            {
                "tag": "geosite-geolocation-!cn",
                "type": "remote",
                "format": "binary",
                "url": "https://cdn.jsdelivr.net/gh/MetaCubeX/meta-rules-dat@sing/geo/geosite/geolocation-!cn.srs",
                "download_detour": "select",
                "update_interval": "1d"
            },
            {
                "tag": "geosite-cn",
                "type": "remote",
                "format": "binary",
                "url": "https://cdn.jsdelivr.net/gh/MetaCubeX/meta-rules-dat@sing/geo/geosite/geolocation-cn.srs",
                "download_detour": "select",
                "update_interval": "1d"
            },
            {
                "tag": "geoip-cn",
                "type": "remote",
                "format": "binary",
                "url": "https://cdn.jsdelivr.net/gh/MetaCubeX/meta-rules-dat@sing/geo/geoip/cn.srs",
                "download_detour": "select",
                "update_interval": "1d"
            }
        ],
    "auto_detect_interface": true,
    "final": "select",
    "rules": [
      {
        "outbound": "dns-out",
        "protocol": "dns"
      },
      {
        "clash_mode": "Direct",
        "outbound": "direct"
      },
      {
        "clash_mode": "Global",
        "outbound": "select"
      },
      {
        "rule_set": "geoip-cn",
        "outbound": "direct"
      },
      {
        "rule_set": "geosite-cn",
        "outbound": "direct"
      },
      {
      "ip_is_private": true,
      "outbound": "direct"
      },
      {
        "rule_set": "geosite-geolocation-!cn",
        "outbound": "select"
      }
    ]
  },
    "ntp": {
    "enabled": true,
    "server": "time.apple.com",
    "server_port": 123,
    "interval": "30m",
    "detour": "direct"
  }
}
